{
  "type": "service_account",
  "project_id": "menu4u-ae",
  "private_key_id": "c1e9d7c0aacbe6c8f393c8afe2e840d64a0c2e86",
  "private_key": "-----BEGIN PRIVATE KEY-----\nMIIEvAIBADANBgkqhkiG9w0BAQEFAASCBKYwggSiAgEAAoIBAQC1naXoOF+HOTYW\nBUd46s5WQix8btUjS/85DjUpR5hYUNA53kNsY/100ucDgWglVlC/kFwy6Pbu9kte\nwMkcM3rLx7o+43aBZ2SuBuaTh5h5tH74mSK60w7VCjahL5ffgLdqlOxA/SN3t5iy\n74JlwRYnUhBkzZlGsooc/riRO4DdfZrFkBJIVqiv/+Dgd1z0kcYkmLzmPjudanQ8\ndQZGwnoRNJFM5Y25ubXZaCEQSiKnthR73Czw62n3Hihl4vFLmm7dcbtI7/njunca\nYKD9A57UgKG28552O28Z+5YmeWtyT64vcu8+vMNsgR+iy/58EuLUaGMTNKdC861H\nHC6LqkB5AgMBAAECggEACDpJHtkW8tBTs/GvSDoS+PNsgoKe40d5G4OaQvF8ZFvc\n4xI/qbRp8hXv40fEiRR8+gC3PJMzRKYhyfwf4EgwwvScambxonElrYCgh4R4EuNr\ncSW23hHbtSkOSoUWc0iohoqSnWsaZT0LDOgu1x9FOqjMF1T9IafK+/9KK0Iv11ja\nwvCV62U8TA4+uPWivhnajx3uSIGR7h+Pw1O5RM6h1zzcyMpzENyzU98309EkZuGT\n/gpjWMMNamBXNcWSL4AONUaWyq5C+Dp51LCfzdvn09xNxbEL8ve1TLf4bV1oGuBy\n4BegCcqwKOLHqjZskRP1rub45vxfVblSWZJgtilpVQKBgQDrHGQYh1MeiTxUq8cg\nTeoFSniuaUIipfOm+h13J4qpSpjQKALgZVTkPuHC1ShdrykpePp9mr4QlTrxrsnS\nSFcWyefa82UKY1uAihUmQr00t+m6HmAGBmtYNvdy0yxPOJ/Xr/DbMtxJE0Lwr5G9\np4n0F5ZTnZSaHHf4GKUnjQeT1wKBgQDFwII2SPnotuJZUNpXDu9vX2LCfKcK8EPa\nX/YS/9dGT47nt1xEBd0V2Aq/k0F7KS7Fn26g1ofej927JWXdTb12fCVrTfNMEGnS\ngfE/BMxC/Gqd9fkcyjSamcnWeHpseco+cB316wyK8L6GH6AaasdLGIG3V4Jc0DPK\nUM5DC+dELwKBgBu5TVRXIMYJCMQzPVfh2CankXN/lfzf9MtL0w2p6//qe/qPvUcY\nq9n+UEDZQdlKPmBVk7Qb+y2Za0n0gnf5b8uQI3b+HHwNG00c+0F3vTfqN/Vqf4g2\nWZIdaTBxFliBJNgaNxyh8rfrPYmEKntitjHCVkel3VAO61amEVOIncwhAoGACAIZ\nw9UEudXeKLvLe8cRDzOPrkyZ/ylntgo4zuApeaFzKhMU23RZVa8gEE4IUtKCIGKq\nejz1159/3TpQe7vQNmIkqcnIVoY7oti8Sk8JbpUGREtXwUC3DKO5tsO+QXJVLF4h\n+HmCUoYZURkqxKcaVwIxDpmun8+WqVTIZZKv1OUCgYAru9cqk0yAw3AeE/sJ6wff\nCoL6LqhK53EajUicA/K7HwMzaIS1oxLXF7htB2ah4Y7b9TzUGOyuMPcLMXYJjIGc\n8APJJfxTuHtlrWYyyj6/BeIKa1UBYrTKW3KWuZ3Qk4CZXnNxGrYXO7F588C8Inh+\nriueIFG8szmY2edCOCxK1Q==\n-----END PRIVATE KEY-----\n",
  "client_email": "firebase-adminsdk-9ri7e@menu4u-ae.iam.gserviceaccount.com",
  "client_id": "117347267474344859006",
  "auth_uri": "https://accounts.google.com/o/oauth2/auth",
  "token_uri": "https://oauth2.googleapis.com/token",
  "auth_provider_x509_cert_url": "https://www.googleapis.com/oauth2/v1/certs",
  "client_x509_cert_url": "https://www.googleapis.com/robot/v1/metadata/x509/firebase-adminsdk-9ri7e%40menu4u-ae.iam.gserviceaccount.com"
}
